{
	"$schema": "http://json-schema.org/draft-07/schema#",
	"$id": "https://gitlab.ow2.org/decoder/pkm-api/-/tree/master/api/pkm-cpp-source-code-schema.json",
	"title": "Source Code C++ Schema Version 1.0.0 JSON Schema.",
	"description": "Source Code C++ Schema Version 1.0.0 JSON Schema.",
	"type": "object",
	"properties":
	{
		"type":
		{
			"type": "string",
			"description": "type of document for the GUI, typically 'Code'"
		},
		"sourceFile":
		{
			"type": "string",
			"description": "related source code file"
		},
		"manifest":
		{
			"$ref": "#/definitions/Manifest"
		},
		"inner":
		{
			"$ref": "#/definitions/Inner"
		}
	},
	"required":
	[
		"sourceFile",
		"manifest"
	],
	"definitions":
	{
		"Manifest":
		{
			"type": "array",
			"description": "Index of C++ artefacts in the document to simplify the search for C++ artefacts",
			"items":
			{
				"$ref": "#/definitions/ManifestItem"
			}
		},
		"ManifestItem":
		{
			"type": "object",
			"description": "Element in the index of C++ artefacts in the document",
			"properties":
			{
				"id":
				{
					"$ref": "#/definitions/Id"
				},
				"path":
				{
					"type": "string",
					"description": "simplified hierarchical name (without template arguments) of the artefact (e.g. std::max)"
				},
				"name":
				{
					"type": "string",
					"description": "short name of the artefact"
				},
				"kind":
				{
					"$ref" : "#/definitions/ManifestKind"
				}
			},
			"required":
			[
				"id",
				"path"
			]
		},
		"Inner":
		{
			"type": "array",
			"description": "List of child C++ artefacts",
			"items":
			{
				"$ref": "#/definitions/Node"
			}
		},
		"Node":
		{
			"type": "object",
			"description": "C++ artefact",
			"properties":
			{
				"id":
				{
					"$ref": "#/definitions/Id"
				},
				"kind":
				{
					"$ref" : "#/definitions/Kind"
				},
				"loc":
				{
					"$ref" : "#/definitions/Loc"
				},
				"range":
				{
					"$ref": "#/definitions/Range"
				},
				"isImplicit":
				{
					"type": "boolean"
				},
				"language":
				{
					"type": "string"
				},
				"name":
				{
					"type": "string"
				},
				"mangledName":
				{
					"type": "string"
				},
				"type":
				{
					"$ref": "#/definitions/Type"
				},
				"storageClass":
				{
					"type": "string"
				},
				"inline":
				{
					"type": "boolean"
				},
				"pretty_decl":
				{
					"type": "string"
				},
				"full_pretty_decl":
				{
					"type": "string"
				},
				"full_name": {
					"type": "string"
				},
				"hasBraces":
				{
					"type": "boolean"
				},
				"isUsed":
				{
					"type": "boolean"
				},
				"isReferenced":
				{
					"type": "boolean"
				},
				"tagUsed":
				{
					"type": "string"
				},
				"completeDefinition":
				{
					"type": "boolean"
				},
				"definitionData":
				{
					"$ref": "#/definitions/DefinitionData"
				},
				"previousDecl":
				{
					"type": "integer"
				},
				"originalNamespace":
				{
					"$ref": "#/definitions/Namespace"
				},
				"target":
				{
					"$ref": "#/definitions/Target"
				},
				"parentDeclContextId":
				{
					"type": "integer"
				},
				"nominatedNamespace":
				{
					"$ref": "#/definitions/Namespace"
				},
				"inner":
				{
					"$ref": "#/definitions/Inner"
				}
			}
		},
		"ManifestKind":
		{
			"type": "string",
			"description": "Simplified kind of artefact for indexing",
			"enum":
			[
				"function",
				"variable",
				"enum",
				"typedef",
				"struct",
				"union",
				"class",
				"field",
				"method"
			]
		},
		"Id":
		{
			"type": "integer",
			"description": "identifier of the C++ artefact"
		},
		"Kind":
		{
			"type": "string",
			"description": "Clang AST node kind",
			"enum":
			[
				"AbiTagAttr",                                                                                                                                                                                                 
				"AccessSpecDecl",                                                                                                                                                                                             
				"AliasAttr",                                                                                                                                                                                                  
				"AlignedAttr",                                                                                                                                                                                                
				"AllocSizeAttr",                                                                                                                                                                                              
				"AlwaysInlineAttr",                                                                                                                                                                                           
				"ArrayInitIndexExpr",                                                                                                                                                                                         
				"ArrayInitLoopExpr",                                                                                                                                                                                          
				"ArraySubscriptExpr",                                                                                                                                                                                         
				"AsmLabelAttr",                                                                                                                                                                                               
				"BinaryOperator",                                                                                                                                                                                             
				"BlockCommandComment",                                                                                                                                                                                        
				"BuiltinAttr",                                                                                                                                                                                                
				"BuiltinTemplateDecl",                                                                                                                                                                                        
				"BuiltinType",                                                                                                                                                                                                
				"CallExpr",                                                                                                                                                                                                   
				"CharacterLiteral",                                                                                                                                                                                           
				"ClassTemplateDecl",                                                                                                                                                                                          
				"ClassTemplatePartialSpecializationDecl",                                                                                                                                                                     
				"ClassTemplateSpecializationDecl",                                                                                                                                                                            
				"ComplexType",                                                                                                                                                                                                
				"ConditionalOperator",                                                                                                                                                                                        
				"ConstantArrayType",                                                                                                                                                                                          
				"ConstantExpr",                                                                                                                                                                                               
				"ConstAttr",                                                                                                                                                                                                  
				"CStyleCastExpr",                                                                                                                                                                                             
				"CXX11NoReturnAttr",                                                                                                                                                                                          
				"CXXBindTemporaryExpr",                                                                                                                                                                                       
				"CXXBoolLiteralExpr",                                                                                                                                                                                         
				"CXXConstructExpr",                                                                                                                                                                                           
				"CXXConstructorDecl",                                                                                                                                                                                         
				"CXXConversionDecl",                                                                                                                                                                                          
				"CXXCtorInitializer",                                                                                                                                                                                         
				"CXXDefaultArgExpr",                                                                                                                                                                                          
				"CXXDefaultInitExpr",                                                                                                                                                                                         
				"CXXDependentScopeMemberExpr",                                                                                                                                                                                
				"CXXDestructorDecl",                                                                                                                                                                                          
				"CXXFunctionalCastExpr",                                                                                                                                                                                      
				"CXXMemberCallExpr",                                                                                                                                                                                          
				"CXXMethodDecl",                                                                                                                                                                                              
				"CXXNewExpr",                                                                                                                                                                                                 
				"CXXNullPtrLiteralExpr",                                                                                                                                                                                      
				"CXXOperatorCallExpr",                                                                                                                                                                                        
				"CXXPseudoDestructorExpr",                                                                                                                                                                                    
				"CXXRecordDecl",                                                                                                                                                                                              
				"CXXScalarValueInitExpr",                                                                                                                                                                                     
				"CXXStaticCastExpr",                                                                                                                                                                                          
				"CXXTemporaryObjectExpr",                                                                                                                                                                                     
				"CXXThisExpr",                                                                                                                                                                                                
				"CXXUnresolvedConstructExpr",                                                                                                                                                                                 
				"DeclRefExpr",                                                                                                                                                                                                
				"DecltypeType",                                                                                                                                                                                               
				"DependentNameType",                                                                                                                                                                                          
				"DependentScopeDeclRefExpr",                                                                                                                                                                                  
				"DependentSizedArrayType",                                                                                                                                                                                    
				"DependentTemplateSpecializationType",                                                                                                                                                                        
				"DeprecatedAttr",                                                                                                                                                                                             
				"ElaboratedType",                                                                                                                                                                                             
				"EnumConstantDecl",                                                                                                                                                                                           
				"EnumDecl",                                                                                                                                                                                                   
				"EnumType",                                                                                                                                                                                                   
				"ExprWithCleanups",                                                                                                                                                                                           
				"FieldDecl",                                                                                                                                                                                                  
				"FinalAttr",                                                                                                                                                                                                  
				"FloatingLiteral",                                                                                                                                                                                            
				"FormatAttr",                                                                                                                                                                                                 
				"FriendDecl",                                                                                                                                                                                                 
				"FullComment",                                                                                                                                                                                                
				"FunctionDecl",                                                                                                                                                                                               
				"FunctionProtoType",                                                                                                                                                                                          
				"FunctionTemplateDecl",                                                                                                                                                                                       
				"GNUNullExpr",                                                                                                                                                                                                
				"HTMLEndTagComment",                                                                                                                                                                                          
				"HTMLStartTagComment",                                                                                                                                                                                        
				"ImplicitCastExpr",                                                                                                                                                                                           
				"ImplicitValueInitExpr",                                                                                                                                                                                      
				"IncompleteArrayType",                                                                                                                                                                                        
				"IndirectFieldDecl",                                                                                                                                                                                          
				"InitListExpr",                                                                                                                                                                                               
				"InjectedClassNameType",                                                                                                                                                                                      
				"InlineCommandComment",                                                                                                                                                                                       
				"IntegerLiteral",                                                                                                                                                                                             
				"LinkageSpecDecl",                                                                                                                                                                                            
				"LValueReferenceType",                                                                                                                                                                                        
				"MaterializeTemporaryExpr",                                                                                                                                                                                   
				"MayAliasAttr",                                                                                                                                                                                               
				"MemberExpr",                                                                                                                                                                                                 
				"MemberPointerType",                                                                                                                                                                                          
				"MinVectorWidthAttr",                                                                                                                                                                                         
				"ModeAttr",                                                                                                                                                                                                   
				"NamespaceDecl",                                                                                                                                                                                              
				"NoDebugAttr",                                                                                                                                                                                                
				"NonNullAttr",                                                                                                                                                                                                
				"NonTypeTemplateParmDecl",                                                                                                                                                                                    
				"NoThrowAttr",                                                                                                                                                                                                
				"OpaqueValueExpr",                                                                                                                                                                                            
				"OverrideAttr",                                                                                                                                                                                               
				"OwnerAttr",                                                                                                                                                                                                  
				"PackExpansionExpr",                                                                                                                                                                                          
				"PackExpansionType",                                                                                                                                                                                          
				"ParagraphComment",                                                                                                                                                                                           
				"ParamCommandComment",
				"ParenExpr",
				"ParenListExpr",
				"ParenType",
				"ParmVarDecl",
				"PointerAttr",
				"PointerType",
				"PureAttr",
				"QualType",
				"RecordType",
				"RestrictAttr",
				"ReturnsNonNullAttr",
				"ReturnsTwiceAttr",
				"RValueReferenceType",
				"SizeOfPackExpr",
				"StaticAssertDecl",
				"StringLiteral",
				"SubstNonTypeTemplateParmExpr",
				"SubstTemplateTypeParmType",
				"TargetAttr",
				"TemplateArgument",
				"TemplateSpecializationType",
				"TemplateTemplateParmDecl",
				"TemplateTypeParmDecl",
				"TemplateTypeParmType",
				"TextComment",
				"TParamCommandComment",
				"TypeAliasDecl",
				"TypeAliasTemplateDecl",
				"TypedefDecl",
				"TypedefType",
				"TypeOfExprType",
				"TypeTraitExpr",
				"UnaryExprOrTypeTraitExpr",
				"UnaryOperator",
				"UnaryTransformType",
				"UnresolvedLookupExpr",
				"UnresolvedMemberExpr",
				"UnresolvedUsingValueDecl",
				"UnusedAttr",
				"UsingDecl",
				"UsingDirectiveDecl",
				"UsingShadowDecl",
				"VarDecl",
				"VarTemplateDecl",
				"VectorType",
				"VerbatimBlockComment",
				"VerbatimBlockLineComment",
				"VerbatimLineComment",
				"VisibilityAttr",
				"WarnUnusedResultAttr",
				"WeakRefAttr"
			]
		},
		"Loc":
		{
			"type": "object",
			"description": "Source code location",
			"properties":
			{
				"offset":
				{
					"type": "integer"
				},
				"line":
				{
					"type": "integer"
				},
				"col":
				{
					"type": "integer"
				},
				"tokLen":
				{
					"type": "integer"
				},
				"includedFrom":
				{
					"$ref": "#/definitions/IncludedFrom"
				},
				"file":
				{
					"type": "string"
				}
			}
		},
		"IncludedFrom":
		{
			"type": "object",
			"properties":
			{
				"file":
				{
					"type": "string"
				}
			},
			"required":
			[
				"file"
			]
		},
		"Range":
		{
			"type": "object",
			"description": "Source code range",
			"properties":
			{
				"begin":
				{
					"$ref": "#/definitions/Loc"
				},
				"end":
				{
					"$ref": "#/definitions/Loc"
				}
			},
			"required":
			[
				"begin",
				"end"
			]
		},
		"Type":
		{
			"type": "object",
			"properties":
			{
				"qualType":
				{
					"type": "string"
				},
				"desugaredQualType":
				{
					"type": "string"
				},
				"typeAliasDeclId":
				{
					"type": "integer"
				}
			},
			"required":
			[
				"qualType"
			]
		},
		"DefinitionData":
		{
			"type": "object",
			"properties":
			{
				"canPassInRegisters":
				{
					"type": "boolean"
				},
				"copyAssign":
				{
					"$ref": "#/definitions/CopyAssign"
				},
				"copyCtor":
				{
					"$ref": "#/definitions/CopyCtor"
				},
				"defaultCtor":
				{
					"$ref": "#/definitions/DefaultCtor"
				},
				"dtor":
				{
					"$ref": "#/definitions/Dtor"
				},
				"isAggregate":
				{
					"type": "boolean"
				},
				"isLiteral":
				{
					"type": "boolean"
				},
				"isPOD":
				{
					"type": "boolean"
				},
				"isStandardLayout":
				{
					"type": "boolean"
				},
				"isTrivial":
				{
					"type": "boolean"
				},
				"isTriviallyCopyable":
				{
					"type": "boolean"
				},
				"moveAssign":
				{
					"$ref": "#/definitions/MoveAssign"
				},
				"moveCtor":
				{
					"$ref": "#/definitions/MoveCtor"
				},
				"hasVariantMembers":
				{
					"type": "boolean"
				},
				"canConstDefaultInit":
				{
					"type": "boolean"
				},
				"hasConstexprNonCopyMoveConstructor":
				{
					"type": "boolean"
				},
				"isEmpty":
				{
					"type": "boolean"
				}
			},
			"required":
			[
				"copyAssign",
				"copyCtor",
				"defaultCtor",
				"dtor",
				"moveAssign",
				"moveCtor"
			]
		},
		"CopyAssign":
		{
			"type": "object",
			"properties":
			{
				"hasConstParam":
				{
					"type": "boolean"
				},
				"implicitHasConstParam":
				{
					"type": "boolean"
				},
				"needsImplicit":
				{
					"type": "boolean"
				},
				"simple":
				{
					"type": "boolean"
				},
				"trivial":
				{
					"type": "boolean"
				}
			}
		},
		"CopyCtor":
		{
			"type": "object",
			"properties":
			{
				"hasConstParam":
				{
					"type": "boolean"
				},
				"implicitHasConstParam":
				{
					"type": "boolean"
				},
				"needsImplicit":
				{
					"type": "boolean"
				},
				"simple":
				{
					"type": "boolean"
				},
				"trivial":
				{
					"type": "boolean"
				}
			}
		},
		"DefaultCtor":
		{
			"type": "object",
			"properties":
			{
				"exists":
				{
					"type": "boolean"
				},
				"needsImplicit":
				{
					"type": "boolean"
				},
				"trivial":
				{
					"type": "boolean"
				},
				"defaultedIsConstexpr":
				{
					"type": "boolean"
				},
				"isConstexpr":
				{
					"type": "boolean"
				}
			}
		},
		"Dtor":
		{
			"type": "object",
			"properties":
			{
				"irrelevant":
				{
					"type": "boolean"
				},
				"needsImplicit":
				{
					"type": "boolean"
				},
				"simple":
				{
					"type": "boolean"
				},
				"trivial":
				{
					"type": "boolean"
				}
			}
		},
		"MoveAssign":
		{
			"type": "object",
			"properties":
			{
				"exists":
				{
					"type": "boolean"
				},
				"needsImplicit":
				{
					"type": "boolean"
				},
				"simple":
				{
					"type": "boolean"
				},
				"trivial":
				{
					"type": "boolean"
				}
			}
		},
		"MoveCtor":
		{
			"type": "object",
			"properties":
			{
				"exists":
				{
					"type": "boolean"
				},
				"needsImplicit":
				{
					"type": "boolean"
				},
				"simple":
				{
					"type": "boolean"
				},
				"trivial":
				{
					"type": "boolean"
				}
			}
		},
		"Namespace":
		{
			"type": "object",
			"properties":
			{
				"id":
				{
					"$ref": "#/definitions/Id"
				},
				"kind":
				{
					"$ref": "#/definitions/Kind"
				},
				"name":
				{
					"type": "string"
				}
			},
			"required":
			[
				"id",
				"kind",
				"name"
			]
		},
		"Target":
		{
			"type": "object",
			"properties":
			{
				"id":
				{
					"$ref": "#/definitions/Id"
				},
				"kind":
				{
					"$ref": "#/definitions/Kind"
				},
				"name":
				{
					"type": "string"
				},
				"type":
				{
					"$ref": "#/definitions/Type"
				}
			},
			"required":
			[
				"id",
				"kind",
				"name"
			]
		}
	}
}
