{
	"$schema": "http://json-schema.org/draft-07/schema#",
	"$id": "https://gitlab.ow2.org/decoder/pkm-api/-/tree/master/api/pkm-git-working-tree-schema.json",
	"title": "PKM Git Working Tree JSON schema",
	"description": "Data model for a Git Working Tree in PKM",
	"type": "object",
	"properties":
	{
		"directory":
		{
			"type": "string",
			"description": "Directory of the (main) Git working tree"
		},
		"git_directory":
		{
			"type": "string",
			"description": "Git directory"
		},
		"git_branch":
		{
			"type": "string",
			"description": "Tracked Git branch"
		},
		"git_commit_id":
		{
			"type": "string",
			"description": "SHA1 ID of current commit"
		},
		"git_config":
		{
			"type": "object",
			"description": "Git configuration of the Git directory (usually .git/config) associated to a Git working tree"
		},
		"linked":
		{
			"type": "array",
			"description": "Linked Git working trees created with 'git worktree add'",
			"items":
			{
				"type": "object",
				"properties":
				{
					"main":
					{
						"type": "string",
						"description": "Directory of the main Git working tree"
					},
					"directory":
					{
						"type": "string",
						"description": "Directory of the linked Git working tree"
					},
					"git_directory":
					{
						"type": "string",
						"description": "Git directory"
					},
					"git_branch":
					{
						"type": "string",
						"description": "Tracked Git branch"
					},
					"git_commit_id":
					{
						"type": "string",
						"description": "SHA1 ID of current commit"
					},
					"git_config":
					{
						"type": "object",
						"description": "Git configuration of the Git directory (usually .git/config) associated to a linked Git working tree"
					}
				}
			}
		}
	},
	"required":
	[
		"git_working_tree",
		"git_branch",
		"git_commit_id"
	]
}
